<svg version="1.1" id="ABN_Word_Mark" xmlns="http://www.w3.org/2000/svg" xmlns:xlink="http://www.w3.org/1999/xlink" x="0px"
     y="0px" viewBox="0 0 735.8 174.8" style="enable-background:new 0 0 735.8 174.8;" xml:space="preserve">
<rect x="-51.6" y="-211" class="st0" style="display:none;fill:#626469;" width="840" height="595.5"/>
  <g>
	<path fill="#fff" d="M735.8,174.8H635.3L550.9,31.2h-4.6v143.6h-53.8V0h95l0,0.1L676.7,155h3.9V0h55.2V174.8z"/>
    <path fill="#fff" d="M451,174.8c-1.6,0-237.3,0-237.3,0l-19.9-36.9H74.5l-18.5,36.9H0L86.7,0h92.9l0,0.1l69.8,130.4V0
		c0,0,188.5,0,195.2,0c3.5,0,9.6,1.1,14.6,3.5c7.1,3.3,16.3,10.5,19.8,26.2l0,34.3c0,0-0.2,4.1-3.2,9.2c-2.7,4.6-8.3,11.1-19.8,15.6
		c1.3,0.3,5,1.3,9.1,4.5c4.6,3.5,10.7,10.5,13.2,23.7l0,25.5c0,0.2-1.2,18.4-12.2,27.5C461.9,173.3,457,174.8,451,174.8z
		 M301.8,142.3h109c0,0,4.7,0,9.2-2.3c4.2-2.1,9.2-6.4,9.2-15.7c0-9.3-4.6-13.9-8.5-16.1c-4.2-2.4-8.5-2.6-8.5-2.6H301.8V142.3z
		 M91.8,104h83.3l-37.6-70.8H126L91.8,104z M301.8,73.8h109c0,0,4.7,0,9.2-2.3c4.2-2.1,9.2-6.4,9.2-15.7c0-9.3-4.3-14.2-7.8-16.7
		c-3.9-2.7-7.4-3.3-12.9-3.3c-18.6,0-106.7,0-106.7,0V73.8z"/>
</g>
</svg>
